…
**Output**:

The output is a list object that stores a wide format dataframe and a nested dataframe.

The wide format dataframe is a good example what the explanation above. The first column is the gene symbols parsed from the end of each samples header line (see `parallel_codeml` README for building file this way). Columns 2-4 are the actual headers from each samples respective fasta file which will be used to parse the sequences in later steps.

```
$wide_format
# A tibble: 3,119 x 4
   file_name                       Laevis                          Scutatus                             Textilis                            
   <chr>                           <chr>                           <chr>                                <chr>                               
 1 IGHM-id342200-id336538          evm.model.scaffold6153.1_IGHM   id342200                             id336538                            
 2 HV333-id379141-id368235         evm.model.scaffold91631.1_HV333 id379141                             id368235                            
 3 EDRF1-EDRF1-EDRF1               evm.model.scaffold1962.2_EDRF1  rna10_XM_026668936.1_EDRF1           rna13700_XM_026704949.1_EDRF1       
 4 TM14C-LOC113413631-LOC113445701 evm.model.scaffold133.1_TM14C   rna10007_XM_026670054.1_LOC113413631 rna23543_XM_026715005.1_LOC113445701
 5 MYNN-MYNN-MYNN                  evm.model.scaffold16556.1_MYNN  rna1001_XM_026666067.1_MYNN          rna14532_XM_026705790.1_MYNN        
 6 KCRB-CKB-CKB                    evm.model.scaffold1822.3_KCRB   rna10012_XM_026670080.1_CKB          rna7197_XM_026698556.1_CKB          
 7 BAG5-BAG5-BAG5                  evm.model.scaffold1369.1_BAG5   rna10016_XM_026670087.1_BAG5         rna7199_XM_026698559.1_BAG5         
 8 KLC1-KLC1-KLC1                  evm.model.scaffold1369.3_KLC1   rna10023_XM_026670084.1_KLC1         rna7205_XM_026698564.1_KLC1         
 9 ZFY21-ZFYVE21-ZFYVE21           evm.model.scaffold7335.2_ZFY21  rna10030_XM_026670104.1_ZFYVE21      rna7211_XM_026698576.1_ZFYVE21      
10 SIVA-SIVA1-SIVA1                evm.model.scaffold18146.1_SIVA  rna10054_XM_026670116.1_SIVA1        rna7235_XM_026698589.1_SIVA1        
# … with 3,109 more rows

$nested_format
# A tibble: 3,119 x 2
   file_name                       data            
   <chr>                           <list>          
 1 IGHM-id342200-id336538          <tibble [3 × 2]>
 2 HV333-id379141-id368235         <tibble [3 × 2]>
 3 EDRF1-EDRF1-EDRF1               <tibble [3 × 2]>
 4 TM14C-LOC113413631-LOC113445701 <tibble [3 × 2]>
 5 MYNN-MYNN-MYNN                  <tibble [3 × 2]>
 6 KCRB-CKB-CKB                    <tibble [3 × 2]>
 7 BAG5-BAG5-BAG5                  <tibble [3 × 2]>
 8 KLC1-KLC1-KLC1                  <tibble [3 × 2]>
 9 ZFY21-ZFYVE21-ZFYVE21           <tibble [3 × 2]>
10 SIVA-SIVA1-SIVA1                <tibble [3 × 2]>
# … with 3,109 more rows
…
The function is a simple one. It only needs the long-format dataframe from the `getBEB()` function, a logical specifying if you want to extract significant sites only and optionally a frequency threshold to filter sites on.

```
> getFreq(df_beb = beb$list$M2a,
           only_signif = FLASE)
```

**Output**

The output is a list object containing two elements. The first is a long-format dataframe that contains the frequency value for each gene + model + tree combination. The second object is a tibble object with rownames for plotting in `pheatmap`. This objects columns are grouped by model and tree, with the genes being the row values.

```
$long
# A tibble: 15,555 x 4
   model gene                      tree   freq
   <chr> <chr>                     <chr> <dbl>
 1 M2a   1433E-YWHAE-YWHAE         base      0
 2 M2a   1433T-YWHAQ-YWHAQ         base      6
 3 M2a   1433Z-YWHAZ-YWHAZ         base      0
 4 M2a   2A5D-PPP2R5D-PPP2R5D      base     29
 5 M2a   2AAA-PPP2R1A-PPP2R1A      base      0
 6 M2a   2ABA-PPP2R2A-LOC113445617 base      0
 7 M2a   3BHS7-HSD3B7-HSD3B7       base      2
 8 M2a   3MG-MPG-MPG               base      1
 9 M2a   4EBP1-EIF4EBP1-EIF4EBP1   base      0
10 M2a   5HT1D-HTR1D-HTR1D         base      0
# … with 15,545 more rows

$heatmap
# A tibble: 3,111 x 5
   M2a_base M8_base ModelA_brownForeground ModelA_laevisForeground ModelA_tigerForeground
 *    <dbl>   <dbl>                  <dbl>                   <dbl>                  <dbl>
 1        0       0                      0                       0                      0
 2        6       6                      0                       6                      0
 3        0       0                      0                       0                      0
 4       29      29                      0                      28                      0
 5        0       0                      0                       0                      0
 6        0       0                      0                       0                      0
 7        2      28                      0                       0                      9
 8        1      12                      3                       0                      1
 9        0       1                      0                       0                      0
10        0      12                      0                       0                      2
# … with 3,101 more rows
```
…
  $list$`M8::1433E-YWHAE-YWHAE_laevisForeground`
  # A tibble: 4 x 9
    branch     t     N     S `dN/dS`    dN     dS `N*dN` `S*dS`
    <chr>  <dbl> <dbl> <dbl>   <dbl> <dbl>  <dbl>  <dbl>  <dbl>
  1 4..5   0      486.  279.       0     0 0           0      0
  2 5..1   0.004  486.  279.       0     0 0.0035      0      1
  3 5..2   0.004  486.  279.       0     0 0.0035      0      1
  4 4..3   0      486.  279.       0     0 0           0      0
$dataframe
  # A tibble: 9,333 x 4
   model gene                 tree             branch
   <chr> <chr>                <chr>            <list>
   1 M8    1433E-YWHAE-YWHAE    brownForeground  <tibble [4 × 9]>
   2 M8    1433E-YWHAE-YWHAE    laevisForeground <tibble [4 × 9]>
   3 M8    1433E-YWHAE-YWHAE    tigerForeground  <tibble [4 × 9]>
   4 M8    1433T-YWHAQ-YWHAQ    brownForeground  <tibble [4 × 9]>
   5 M8    1433T-YWHAQ-YWHAQ    laevisForeground <tibble [4 × 9]>
   6 M8    1433T-YWHAQ-YWHAQ    tigerForeground  <tibble [4 × 9]>
   7 M8    1433Z-YWHAZ-YWHAZ    brownForeground  <tibble [4 × 9]>
   8 M8    1433Z-YWHAZ-YWHAZ    laevisForeground <tibble [4 × 9]>
   9 M8    1433Z-YWHAZ-YWHAZ    tigerForeground  <tibble [4 × 9]>
  10 M8    2A5D-PPP2R5D-PPP2R5D brownForeground  <tibble [4 × 9]>
# … with 9,323 more rows
```
…
